code;;;name;semester;R;G;B
W;WEB;842;Java;3;5;5;50
W;RAT;010;Rattrapages;3;5;5;50
W;WEB;401;Rattrapages;3;5;5;50
C;COD;161;Projet professionnel;1;5;5;50
C;COD;160;Projets web;1;5;5;50
C;COD;141;Ruby;1;5;5;5
C;COD;140;Python;1;5;5;5
C;COD;130;Frameworks MVC;1;5;5;5
C;COD;121;Stack MERN;1;5;5;50
C;COD;100;Dump;1;5;5;50
B;ADS;100;Introduction to OS;1;10;0;70
B;ADS;200;Introduction to System Administration;2;10;0;70
B;ADS;400;Introduction to System Administration;4;10;0;70
B;ADS;500;Introduction to System Administration;5;10;0;70
T;ADS;500;Unix System Administration;5;10;0;70
T;ADS;510;System Administration;5;10;0;70
B;ASM;400;x86_64 Assembler;4;10;5;40
T;BDD;800;Database;8;0;0;50
;CapGemini;;Java EE Training Course;-1;5;5;50
B;CNA;410;Computer Numerical Analysis – Trade;4;0;0;70
B;CPE;100;Unix & C Lab Seminar;1;60;10;30
B;CPE;101;Unix & C Lab Seminar;1;60;10;30
B;CPE;102;Unix & C Lab Seminar;1;60;10;30
C;COD;192;Spécialité Java & Python - Java;1;5;5;50
B;CPE;120;GetNextLine;1;0;0;60
B;CPE;210;Stumpers;2;0;0;60
B;CPE;110;Elementary Programming in C;1;0;0;60
B;CPE;200;Elementary Programming in C;2;0;0;60
B;CPE;201;Elementary Programming in C;2;0;0;60
B;CPE;300;Elementary Programming in C;3;0;0;60
B;CPP;300;C++ Pool;3;40;10;35
B;CPP;400;C++ Programming;4;20;20;50
B;CPP;401;C++ Programming;4;20;20;50
B;CPP;500;Advanced C++;5;20;20;50
B;CPP;501;Advanced C++;5;20;20;50
B;CPP;510;Advanced C++;5;20;20;50
T;CPP;700;C++;7;0;0;50
T;CPP;710;C++;7;0;0;50
T;CPP;720;C++ Pool;7;0;0;50
T;CPP;500;C++;5;50;30;60
B;CSI;550;Information System Conception;5;6;6;80
T;EMB;800;Embedded World;8;0;0;50
;EpitechDocumentation;;;-1;25;15;70
B;FUN;400;Functional Programming;4;5;0;40
B;FUN;500;Advanced Functional Programming;5;5;0;40
B;FUN;501;Advanced Functional Programming;5;5;0;40
B;FUN;510;Advanced Functional Programming;5;5;0;40
B;IAR;500;Artificial Intelligence;5;5;15;70
B;IIA;150;Introduction to Artificial Intelligence;2;5;15;70
T;JAV;500;Java Seminar;5;5;5;50
T;JAV;600;Advanced Java;6;5;5;50
B;DEV;500;Application Development;5;20;0;60
B;DEV;501;Application Development;5;20;0;60
B;DEV;510;Application Development;5;20;0;60
T;JSF;600;Javascript Frameworks;6;34;24;60
B;LAW;500;Law & Privacy on Internet;5;10;10;50
B;MAT;100;Mathematics;1;0;0;70
B;MAT;200;Mathematics;2;0;0;70
B;MAT;400;Mathematics;4;0;0;70
B;MAT;500;Mathematics;5;0;0;70
B;MET;xxx;Professionnal Competencies;-1;5;5;20
T;MOB;700;Mobile Application Development;7;0;0;50
T;MOB;800;Mobile Cross Plateform Development;8;0;0;50
B;MUL;100;C Graphical Programming;1;20;0;80
B;MUL;200;C Graphical Programming;2;20;0;80
B;NET;200;Introduction to Networks;2;20;10;60
B;NET;400;Introduction to Networks;2;20;10;60
B;PRO;300;Internship;3;14;14;50
B;PRO;500;Part-time Internship;5;14;14;50
B;PRO;600;Internship;6;14;14;50
T;PRO;600;Part-time Job;6;14;14;50
T;PRO;800;Part-time Job;8;14;14;50
B;PSU;100;Unix System Programming;1;0;0;40
B;PSU;200;Unix System Programming;2;0;0;40
B;PSU;400;Unix System Programming;4;0;0;40
B;PSU;401;Unix System Programming;4;0;0;40
B;PSU;402;Unix System Programming;4;0;0;40
B;PSU;403;Unix System Programming;4;0;0;40
B;PSU;110;Shell Programming;1;10;0;50
B;PSU;210;Shell Programming;2;10;0;50
G;SEC;xxx;Security;0;15;5;70
G;SEC;0;Introduction to Binary Security;0;15;5;70
G;SEC;10;Introduction to Web Security;0;15;5;70
B;SEC;500;Cryptography;5;15;5;70
B;SHL;300;Shell Script;3;10;5;90
T;SHL;500;Shell Script;5;10;5;90
B;SYN;200;Synthesis Pool;2;40;10;30
B;SYN;400;Synthesis Pool;4;40;10;30
T;WEB;x00;Web Development Seminar;;60;10;30
T;WEB;300;Web Development Seminar;3;60;10;30
T;WEB;310;Web Development;3;60;10;30
T;WEB;800;Web Architecture;8;0;0;50
B;WEB;200;Introduction to Web Development;2;0;20;60
T;WEB;600;PHP Frameworks;8;0;0;50
T;DOP;600;DevOps;6;14;14;50
T;USP;300;Unix Programming: Network & Concurrency;3;0;0;40
T;SAD;300;Unix System Administration;3;10;0;70
